pais,provincia_departamento,ciudad
Argentina,Bs.As. G.B.A. Zona Norte,Escobar
Argentina,Bs.As. G.B.A. Zona Norte,General San Martín
Argentina,Bs.As. G.B.A. Zona Norte,José C Paz
Argentina,Bs.As. G.B.A. Zona Norte,Malvinas Argentinas
Argentina,Bs.As. G.B.A. Zona Norte,Pilar
Argentina,Bs.As. G.B.A. Zona Norte,San Fernando
Argentina,Bs.As. G.B.A. Zona Norte,San Isidro
Argentina,Bs.As. G.B.A. Zona Norte,San Miguel
Argentina,Bs.As. G.B.A. Zona Norte,Tigre
Argentina,Bs.As. G.B.A. Zona Norte,Vicente López
Argentina,Bs.As. G.B.A. Zona Oeste,General Rodríguez
Argentina,Bs.As. G.B.A. Zona Oeste,Hurlingham
Argentina,Bs.As. G.B.A. Zona Oeste,Ituzaingó
Argentina,Bs.As. G.B.A. Zona Oeste,La Matanza
Argentina,Bs.As. G.B.A. Zona Oeste,Merlo
Argentina,Bs.As. G.B.A. Zona Oeste,Moreno
Argentina,Bs.As. G.B.A. Zona Oeste,Morón
Argentina,Bs.As. G.B.A. Zona Oeste,Tres de Febrero
Argentina,Bs.As. G.B.A. Zona Sur,Almirante Brown
Argentina,Bs.As. G.B.A. Zona Sur,Avellaneda
Argentina,Bs.As. G.B.A. Zona Sur,Berazategui
Argentina,Bs.As. G.B.A. Zona Sur,Esteban Echeverría
Argentina,Bs.As. G.B.A. Zona Sur,Ezeiza
Argentina,Bs.As. G.B.A. Zona Sur,La Plata
Argentina,Bs.As. G.B.A. Zona Sur,Lanús
Argentina,Bs.As. G.B.A. Zona Sur,Lomas de Zamora
Argentina,Bs.As. G.B.A. Zona Sur,Quilmes
Argentina,Bs.As. G.B.A. Zona Sur,San Vicente
Argentina,Buenos Aires Costa Atlántica,Costa del Este
Argentina,Buenos Aires Costa Atlántica,Mar Chiquita
Argentina,Buenos Aires Costa Atlántica,Mar de Ajó
Argentina,Buenos Aires Costa Atlántica,Mar del Plata
Argentina,Buenos Aires Costa Atlántica,Mar del Tuyú
Argentina,Buenos Aires Costa Atlántica,Miramar
Argentina,Buenos Aires Costa Atlántica,Monte Hermoso
Argentina,Buenos Aires Costa Atlántica,Necochea
Argentina,Buenos Aires Costa Atlántica,Ostende
Argentina,Buenos Aires Costa Atlántica,Pinamar
Argentina,Buenos Aires Costa Atlántica,San Bernardo
Argentina,Buenos Aires Costa Atlántica,San Clemente del Tuyú
Argentina,Buenos Aires Costa Atlántica,Santa Clara del Mar
Argentina,Buenos Aires Costa Atlántica,Santa Teresita
Argentina,Buenos Aires Costa Atlántica,Valeria del Mar
Argentina,Buenos Aires Costa Atlántica,Villa Gesell
Argentina,Buenos Aires Interior,Azul
Argentina,Buenos Aires Interior,Bahía Blanca
Argentina,Buenos Aires Interior,Balcarce
Argentina,Buenos Aires Interior,Berisso
Argentina,Buenos Aires Interior,Campana
Argentina,Buenos Aires Interior,Ensenada
Argentina,Buenos Aires Interior,Exaltación de la Cruz
Argentina,Buenos Aires Interior,General Belgrano
Argentina,Buenos Aires Interior,General Madariaga
Argentina,Buenos Aires Interior,General Pueyrredón
Argentina,Buenos Aires Interior,Junín
Argentina,Buenos Aires Interior,Lobos
Argentina,Buenos Aires Interior,Luján
Argentina,Buenos Aires Interior,Mercedes
Argentina,Buenos Aires Interior,Olavarría
Argentina,Buenos Aires Interior,Pergamino
Argentina,Buenos Aires Interior,San Miguel del Monte
Argentina,Buenos Aires Interior,Tandil
Argentina,Buenos Aires Interior,Tres Arroyos
Argentina,Capital Federal,Abasto
Argentina,Capital Federal,Agronomía
Argentina,Capital Federal,Almagro
Argentina,Capital Federal,Balvanera
Argentina,Capital Federal,Barracas
Argentina,Capital Federal,Barrio Norte
Argentina,Capital Federal,Belgrano
Argentina,Capital Federal,Boca
Argentina,Capital Federal,Boedo
Argentina,Capital Federal,Caballito
Argentina,Capital Federal,Centro / Microcentro
Argentina,Capital Federal,Chacarita
Argentina,Capital Federal,Coghlan
Argentina,Capital Federal,Colegiales
Argentina,Capital Federal,Congreso
Argentina,Capital Federal,Constitución
Argentina,Capital Federal,Flores
Argentina,Capital Federal,Floresta
Argentina,Capital Federal,Las Cañitas
Argentina,Capital Federal,Liniers
Argentina,Capital Federal,Mataderos
Argentina,Capital Federal,Monserrat
Argentina,Capital Federal,Monte Castro
Argentina,Capital Federal,Nuñez
Argentina,Capital Federal,Once
Argentina,Capital Federal,Palermo
Argentina,Capital Federal,Parque Avellaneda
Argentina,Capital Federal,Parque Centenario
Argentina,Capital Federal,Parque Chacabuco
Argentina,Capital Federal,Parque Chas
Argentina,Capital Federal,Parque Patricios
Argentina,Capital Federal,Paternal
Argentina,Capital Federal,Pompeya
Argentina,Capital Federal,Puerto Madero
Argentina,Capital Federal,Recoleta
Argentina,Capital Federal,Retiro
Argentina,Capital Federal,Saavedra
Argentina,Capital Federal,San Cristobal
Argentina,Capital Federal,San Nicolás
Argentina,Capital Federal,San Telmo
Argentina,Capital Federal,Tribunales
Argentina,Capital Federal,Velez Sarsfield
Argentina,Capital Federal,Versalles
Argentina,Capital Federal,Villa Crespo
Argentina,Capital Federal,Villa Devoto
Argentina,Capital Federal,Villa General Mitre
Argentina,Capital Federal,Villa Lugano
Argentina,Capital Federal,Villa Luro
Argentina,Capital Federal,Villa Ortuzar
Argentina,Capital Federal,Villa Pueyrredón
Argentina,Capital Federal,Villa Real
Argentina,Capital Federal,Villa Riachuelo
Argentina,Capital Federal,Villa Santa Rita
Argentina,Capital Federal,Villa Soldati
Argentina,Capital Federal,Villa Urquiza
Argentina,Capital Federal,Villa del Parque
Argentina,Chaco,Resistencia
Argentina,Chubut,Escalante
Argentina,Chubut,Puerto Madryn
Argentina,Chubut,Trelew
Argentina,Córdoba,Córdoba
Argentina,Córdoba,Punilla
Argentina,Córdoba,Río Cuarto
Argentina,Córdoba,Río Tercero
Argentina,Córdoba,Villa Allende
Argentina,Córdoba,Villa Carlos Paz
Argentina,Córdoba,Villa General Belgrano
Argentina,Córdoba,Villa María
Argentina,Entre Ríos,Colón
Argentina,Entre Ríos,Concordia
Argentina,Entre Ríos,Gualeguaychú
Argentina,Entre Ríos,Paraná
Argentina,Jujuy,San Salvador de Jujuy
Argentina,Mendoza,Carrodilla
Argentina,Mendoza,Chacras de Coria
Argentina,Mendoza,Godoy Cruz
Argentina,Mendoza,Las Heras
Argentina,Mendoza,Luján de Cuyo
Argentina,Mendoza,Maipú
Argentina,Mendoza,Malargüe
Argentina,Mendoza,Mendoza
Argentina,Misiones,Posadas
Argentina,Neuquén,Añelo
Argentina,Neuquén,Confluencia
Argentina,Neuquén,Lácar
Argentina,Neuquén,Neuquén
Argentina,Neuquén,Plottier
Argentina,Neuquén,Rincón de los Sauces
Argentina,Neuquén,San Martín de los Andes
Argentina,Neuquén,Villa La Angostura
Argentina,Río Negro,Allen
Argentina,Río Negro,Cipolletti
Argentina,Río Negro,General Fernández Oro
Argentina,Río Negro,General Roca
Argentina,Río Negro,Las Grutas
Argentina,Río Negro,San Carlos de Bariloche
Argentina,Río Negro,Villa Cerro Catedral
Argentina,Salta,Acambuco
Argentina,Salta,Salta
Argentina,San Juan,Rivadavia
Argentina,San Juan,San Juan
Argentina,San Luis,San Francisco del Monte de Oro
Argentina,Santa Fe,Esperanza
Argentina,Santa Fe,Granadero Baigorria
Argentina,Santa Fe,Rafaela
Argentina,Santa Fe,Roldán
Argentina,Santa Fe,Rosario
Argentina,Santa Fe,San Lorenzo
Argentina,Santa Fe,Santa Fe
Argentina,Santa Fe,Santo Tomé
Argentina,Santa Fe,Villa Constitución
Argentina,Tucumán,Yerba Buena
Colombia,Antioquia,Abejorral
Colombia,Antioquia,Barbosa
Colombia,Antioquia,Bello
Colombia,Antioquia,Copacabana
Colombia,Antioquia,El Carmen de Viboral
Colombia,Antioquia,Envigado
Colombia,Antioquia,Girardota
Colombia,Antioquia,Guarne
Colombia,Antioquia,Itagui
Colombia,Antioquia,La Ceja
Colombia,Antioquia,La Estrella
Colombia,Antioquia,Marinilla
Colombia,Antioquia,Medellín
Colombia,Antioquia,Retiro
Colombia,Antioquia,Rionegro
Colombia,Antioquia,Sabaneta
Colombia,Antioquia,Santafé de Antioquia
Colombia,Atlántico,Barranquilla
Colombia,Atlántico,Juan de Acosta
Colombia,Atlántico,Puerto Colombia
Colombia,Atlántico,Soledad
Colombia,Bolívar,Cartagena
Colombia,Boyacá,Chiquinquirá
Colombia,Boyacá,Duitama
Colombia,Boyacá,Tunja
Colombia,Cauca,Popayán
Colombia,Cundinamarca,Agua de Dios
Colombia,Cundinamarca,Anapoima
Colombia,Cundinamarca,Bogotá D.C
Colombia,Cundinamarca,Cabrera
Colombia,Cundinamarca,Cajicá
Colombia,Cundinamarca,Chía
Colombia,Cundinamarca,Cota
Colombia,Cundinamarca,Funza
Colombia,Cundinamarca,Fusagasugá
Colombia,Cundinamarca,Gachancipá
Colombia,Cundinamarca,Girardot
Colombia,Cundinamarca,La Calera
Colombia,Cundinamarca,La Vega
Colombia,Cundinamarca,Madrid
Colombia,Cundinamarca,Mosquera
Colombia,Cundinamarca,Ricaurte
Colombia,Cundinamarca,Soacha
Colombia,Cundinamarca,Sopó
Colombia,Cundinamarca,Tabio
Colombia,Cundinamarca,Tocancipá
Colombia,Cundinamarca,Zipaquirá
Colombia,Córdoba,Pueblo Nuevo
Colombia,Huila,Neiva
Colombia,Huila,Palermo
Colombia,Magdalena,Santa Marta
Colombia,Meta,Acacías
Colombia,Meta,San Martín
Colombia,Norte de Santander,Los Patios
Colombia,Norte de Santander,Villa del Rosario
Colombia,Quindío,Armenia
Colombia,Risaralda,Marsella
Colombia,Risaralda,Pereira
Colombia,Risaralda,Santa Rosa de Cabal
Colombia,Santander,Barrancabermeja
Colombia,Santander,Bucaramanga
Colombia,Santander,Curití
Colombia,Santander,Floridablanca
Colombia,Santander,Girón
Colombia,Santander,Piedecuesta
Colombia,Santander,San Gil
Colombia,Tolima,Ibagué
Colombia,Tolima,Melgar
Colombia,Tolima,San Luis
Colombia,Valle del Cauca,Buenaventura
Colombia,Valle del Cauca,Cali
Colombia,Valle del Cauca,Jamundí
Colombia,Valle del Cauca,Palmira
Colombia,Valle del Cauca,Tuluá
Colombia,Valle del Cauca,Yumbo
